{
    "app-id": "org.zandronum.Zandronum",
    "runtime": "org.freedesktop.Platform",
    "runtime-version": "1.6",
    "sdk": "org.freedesktop.Sdk",
    "command": "zandronum",
    "finish-args": [ "--share=ipc",
                     "--share=network",
                     "--socket=x11",
                     "--socket=wayland",
                     "--socket=pulseaudio",
                     "--device=dri",
                     "--filesystem=home",
                     "--env=DOOMWADDIR=/app/share/games/doom" ],
    "modules": [
       "shared-modules/SDL/SDL-1.2.15.json",
       "shared-modules/glew/glew.json",
       "shared-modules/glu/glu-9.0.0.json",
        {
           "name": "Zandronum",
            "buildsystem": "cmake",
            "config-opts": [ "-DCMAKE_BUILD_TYPE=Release" ],
            "sources": [
                {
                    "type": "archive",
                    "url": "http://zandronum.com/essentials/fmod/fmodapi42416linux64.tar.gz",
                    "sha256": "de545ab90c4f137a8e1734ed1891c7e28fa257d9cb7e6c953bedfd0fd9a77c42",
                    "strip-components" : 0
                },
                {
                    "type": "archive",
                    "url": "https://bitbucket.org/Torr_Samaho/zandronum-stable/get/74fbeac6dbf.tar.bz2",
                    "sha256": "c54962a7b65e8d40a19facd5d87fcd6af9ea061d28d83abc1c05b9cbe98d0673"
                },
               {
                    "type": "file",
                    "url": "http://sqlite.org/2018/sqlite-autoconf-3230100.tar.gz",
                    "sha1": "0edbfd75ececb95e8e6448d6ff33df82774c9646",
                    "dest-filename": "sqlite/sqlite-0edbfd75ececb95e8e6448d6ff33df82774c9646.tar.gz"
               },
               {
                    "type": "patch",
                    "path": "installTarget.patch"
               },
               {
                    "type": "patch",
                    "path": "adjustDirs.patch"
               }
            ]
        }
    ]
}
